IPJ - Datajournalisme
…
La fonction `read_csv()` permet de lire des données stockées en CSV sous forme de `tibble` (il s'agit en fait d'un cas particlier de `read_delim()`, comme `read_tsv()`).

Cette fonction n'a qu'un seul argument obligatoire : la source des données. Cette source peut être :
* l'emplacement d'un fichier sur le disque (il s'agira alors d'un path, voire slide suivante) ;
* l'emplacement d'un fichier sur un serveur (il s'agira alors d'une URL) ;
* une chaîne de caractère dont les données sont séparées par des virgules (comme dans notre exemple).

Par exemple, vous pouvez charger un CSV publié sur data.gouv.fr (ici [les indicateurs de suivi de l'épidémie de Covid](https://www.data.gouv.fr/fr/datasets/indicateurs-de-suivi-de-lepidemie-de-covid-19/) par le Ministère de la Santé) :

```r
read_csv("https://www.data.gouv.fr/fr/datasets/r/381a9472-ce83-407d-9a64-1b8c23af83df")
```

```
## # A tibble: 895 × 5
##    extract_date tx_incid     R taux_occupation_sae tx_pos
##    <date>          <dbl> <dbl>               <dbl>  <dbl>
##  1 2020-03-18      NA       NA                15.2     NA
##  2 2020-03-19       5.57    NA                19.8     NA
##  3 2020-03-20       8.40    NA                25.6     NA
##  4 2020-03-21      11.0     NA                28.7     NA
##  5 2020-03-22      13.6     NA                33.1     NA
##  6 2020-03-23      18.3     NA                41.1     NA
##  7 2020-03-24      23.9     NA                49.5     NA
##  8 2020-03-25      30.1     NA                58       NA
##  9 2020-03-26      32.9     NA                66.3     NA
## 10 2020-03-27      36.9     NA                74.3     NA
## # ℹ 885 more rows
```
…
---

#### La sortie de read_csv()

Pour plus de sécurité, il est souvent préférable de télécharger localement un fichier. Téléchargez le fichier des indicateurs et placez-le dans le dossier *data* de votre projet ou du dossier consacré à ce cours. Puis, chargez-le.

Que pouvons-nous dire de ce qui s'affiche dans la console ?

```r
read_csv("../data/table-indicateurs-open-data-france.csv")
```

```
## # A tibble: 230 × 5
##    extract_date tx_incid     R taux_occupation_sae tx_pos
##    <date>          <dbl> <dbl>               <dbl>  <dbl>
##  1 2020-03-18      NA       NA                15.2     NA
##  2 2020-03-19       5.57    NA                19.8     NA
##  3 2020-03-20       8.40    NA                25.6     NA
##  4 2020-03-21      11.0     NA                28.7     NA
##  5 2020-03-22      13.6     NA                33.1     NA
##  6 2020-03-23      18.3     NA                41.1     NA
##  7 2020-03-24      23.9     NA                49.5     NA
##  8 2020-03-25      30.1     NA                58       NA
##  9 2020-03-26      32.9     NA                66.3     NA
## 10 2020-03-27      36.9     NA                74.3     NA
## # ℹ 220 more rows
```
…
### read_excel()

La fonction `read_excel()` du package `{readxl}` (intégré au `{tidyverse}`) permet de lire les fichiers propriétaires de type Excel : **xls** et **xlsx**. Elle prend le même argument de base du path du fichier et impute le type de fichier (xls ou xlsx) par lui-même. Il nécessite en revanche un argument supplémentaire : **sheet** qui spécifie par une chaîne de caractère le nom de la feuille que l'on souhaite importer.

Il vous faudra donc connaître le nom par avance ou, plus probablement, ouvrir le fichier par aileurs pour le renseigner.

Les fichiers Excel étant d'usage courant, il est bon de savoir maîtriser cette fonction au cas où. Par exemple, pour lire [des données issues du projet de loi de finances 2021](https://www.data.gouv.fr/fr/datasets/projet-de-loi-de-finances-pour-2021-plf-2021-donnees-du-plf-et-des-annexes-projet-annuel-de-performance-pap/#_) :

```r
readxl::read_excel("../data/PLF_2021_Liste_des_taxes_affectees.xlsx", sheet = "taxes affectées")
```

```
## # A tibble: 287 × 21
##    Nature juridique du bénéfici…¹ ...2  ...3  ...4  Rattachement d'un op…² ...6 
##    <chr>                          <chr> <chr> <chr> <chr>                  <chr>
##  1 Secteur                        Caté… Caté… Numé… Mission                Prog…
##  2 Secteur social                 Orga… Régi… <NA>  <NA>                   <NA> 
##  3 Secteur social                 Orga… Mutu… 3029… <NA>                   <NA> 
##  4 Autres bénéficiaires           Autr… Étab… 4951… <NA>                   <NA> 
##  5 Secteur social                 Orga… Régi… 1800… <NA>                   <NA> 
##  6 Secteur local                  Comm… Comm… <NA>  <NA>                   <NA> 
##  7 Secteur local                  Orga… Orga… <NA>  <NA>                   <NA> 
##  8 Secteur social                 Orga… Autr… 1800… <NA>                   <NA> 
##  9 Secteur social                 Orga… Autr… <NA>  <NA>                   <NA> 
## 10 Organismes d'administration c… Opér… Étab… 5250… Écologie, développeme… 203 …
## # ℹ 277 more rows
## # ℹ abbreviated names: ¹​`Nature juridique du bénéficiaire`,
## #   ²​`Rattachement d'un operateur`
## # ℹ 15 more variables: `Bénéficiaire de la taxe` <chr>, ...8 <chr>,
## #   `Taxe affectée` <chr>, ...10 <chr>, ...11 <chr>, ...12 <chr>, ...13 <chr>,
## #   ...14 <chr>, ...15 <chr>, ...16 <chr>, ...17 <chr>, ...18 <chr>,
## #   ...19 <chr>, `Référence juridique` <chr>, ...21 <chr>
```
…
Vous pouvez renommer soit en chargeant (avec **col_names**), soit variables par variables, soit avec la fonction `setNames()`. Je vous recommande la première ou troisième option et, surtout, **je vous conseille de renommer à l'aide d'un vecteur** : cela facilitera le traçage des noms de variable.

```r
read_csv2("../data/sports-prix-moyen-dune-cotisation-sportive-adulte-dans-un-club-sportif.csv") %>% 
  setNames(c("nom_club","cout_cotisation"))
```

```
## # A tibble: 31 × 2
##    nom_club                                              cout_cotisation
##    <chr>                                                           <dbl>
##  1 Issy Gym Vitalité                                                 315
##  2 Issy les Moulineaux Badminton Club 92                             259
##  3 Issy les Moulineaux Trampoline et Sports Acrobatiques             370
##  4 ABIMES                                                             NA
##  5 Avia Club Athlétisme d'Issy les Moulineaux                        193
##  6 Football Club d'Issy les Moulineaux                               300
##  7 Free Touch Rugby                                                  100
##  8 Entente Pongiste Isséenne                                         275
##  9 Issy Aventure                                                     170
## 10 Issy Triathlon                                                    375
## # ℹ 21 more rows
```
…
