IPJ - Datajournalisme
…
La fonction `filter()` du package `{dplyr}` va nous permettre de sélectionner les observation suivant une ou plusieurs conditions.

La fonction `filter()` appelle un ou plusieurs tests portant sur une ou plusieurs variables :

```r
rne4 <- rne4 %>%  setNames(c("region_code","region_nom","dep_code","dep_nom","elu_nom","elu_prenom",
                   "sexe","date_naissance","profession_code","profession_nom","date_mandat",
                   "fonction","fonction_date"))

rne4 %>% filter(sexe == "F")
```

```
## # A tibble: 2,029 × 13
##    region_code region_nom dep_code dep_nom              elu_nom elu_prenom sexe 
##    <chr>       <chr>      <chr>    <chr>                <chr>   <chr>      <chr>
##  1 01          Ain        0101     Ambérieu-En-Bugey    PETIT   Aurélie    F    
##  2 01          Ain        0102     Attignat             FOURNI… Clotilde   F    
##  3 01          Ain        0103     Valserhône           OLLIET  Anne-Laure F    
##  4 01          Ain        0104     Belley               BOREL   Aurélie    F    
##  5 01          Ain        0105     Bourg-En-Bresse-1    BERTRA… Hélène     F    
##  6 01          Ain        0106     Bourg-En-Bresse-2    CÉDILE… Hélène     F    
##  7 01          Ain        0107     Ceyzériat            TABOUR… Martine    F    
##  8 01          Ain        0108     Châtillon-Sur-Chala… CHMARA  Patricia   F    
##  9 01          Ain        0109     Gex                  BAUDE   Véronique  F    
## 10 01          Ain        0110     Plateau d'Hauteville MEURIAU Annie      F    
## # ℹ 2,019 more rows
## # ℹ 6 more variables: date_naissance <chr>, profession_code <dbl>,
## #   profession_nom <chr>, date_mandat <chr>, fonction <chr>,
## #   fonction_date <chr>
```
…
---

### L'opérateur %in%

L'opérateur `%in%` permet de réaliser un test avec plusieurs possibilités fournies sous forme d'un vecteur.

Nous pouvons par exemple passer une liste de codes de régions pour en sélectionner plusieurs d'un coup :

```r
rne4 %>% filter(region_code %in% c("11","27","44"))
```

```
## # A tibble: 146 × 13
##    region_code region_nom dep_code dep_nom            elu_nom elu_prenom   sexe 
##    <chr>       <chr>      <chr>    <chr>              <chr>   <chr>        <chr>
##  1 11          Aude       1101     La Piège au Razès  BOURREL Marie-Chris… F    
##  2 11          Aude       1101     La Piège au Razès  VIOLA   André        M    
##  3 11          Aude       1102     Carcassonne-1      BARDOU  Magali       F    
##  4 11          Aude       1102     Carcassonne-1      MOURAD  François     M    
##  5 11          Aude       1103     Carcassonne-2      LECINA  Thierry      M    
##  6 11          Aude       1103     Carcassonne-2      RIVEL   Tamara       F    
##  7 11          Aude       1104     Carcassonne-3      CONQUET Maria        F    
##  8 11          Aude       1104     Carcassonne-3      DEDIES  Daniel       M    
##  9 11          Aude       1105     Le Bassin chaurien BRUNEL  Eliane       F    
## 10 11          Aude       1105     Le Bassin chaurien MAUGARD Patrick      M    
## # ℹ 136 more rows
## # ℹ 6 more variables: date_naissance <chr>, profession_code <dbl>,
## #   profession_nom <chr>, date_mandat <chr>, fonction <chr>,
## #   fonction_date <chr>
```

---

### L'opérateur "!"

L'opérateur `!`, quand il précède un test, permet d'en inverser les critères et donc de "ne pas" sélectionner les observations qui correspondent au test.

Par exemple, nous pouvons inverser la sélectioner précédente en sélectionnant toutes les régions SAUF celles listées :

```r
rne4 %>% filter(!(region_code %in% c("11","27","44")))
```

```
## # A tibble: 3,909 × 13
##    region_code region_nom dep_code dep_nom           elu_nom    elu_prenom sexe 
##    <chr>       <chr>      <chr>    <chr>             <chr>      <chr>      <chr>
##  1 01          Ain        0101     Ambérieu-En-Bugey BRUNET     Joël       M    
##  2 01          Ain        0101     Ambérieu-En-Bugey PETIT      Aurélie    F    
##  3 01          Ain        0102     Attignat          FOURNIER   Clotilde   F    
##  4 01          Ain        0102     Attignat          MARTIN     Walter     M    
##  5 01          Ain        0103     Valserhône        LARMANJAT  Guy        M    
##  6 01          Ain        0103     Valserhône        OLLIET     Anne-Laure F    
##  7 01          Ain        0104     Belley            BOREL      Aurélie    F    
##  8 01          Ain        0104     Belley            HEDON      Jean-Yves  M    
##  9 01          Ain        0105     Bourg-En-Bresse-1 BERTRAND-… Hélène     F    
## 10 01          Ain        0105     Bourg-En-Bresse-1 MORAND     Alexis     M    
## # ℹ 3,899 more rows
## # ℹ 6 more variables: date_naissance <chr>, profession_code <dbl>,
## #   profession_nom <chr>, date_mandat <chr>, fonction <chr>,
## #   fonction_date <chr>
```

---

### Exercice de filtre

Je vous demande de filtrer rne4 pour ne conserver que les élu·es dont le prénom comporte moins de 5 lettres.

--

```r
rne4 %>% filter(nchar(elu_prenom) < 5)
```

```
## # A tibble: 283 × 13
##    region_code region_nom dep_code dep_nom              elu_nom elu_prenom sexe 
##    <chr>       <chr>      <chr>    <chr>                <chr>   <chr>      <chr>
##  1 01          Ain        0101     Ambérieu-En-Bugey    BRUNET  Joël       M    
##  2 01          Ain        0103     Valserhône           LARMAN… Guy        M    
##  3 01          Ain        0114     Nantua               DEGUER… Jean       M    
##  4 01          Ain        0117     Replonges            BILLOU… Guy        M    
##  5 01          Ain        0121     Trévoux              PÉCHOUX Marc       M    
##  6 02          Aisne      0201     Bohain-En-Vermandois ROJO    Yann       M    
##  7 02          Aisne      0204     Essômes-Sur-Marne    MARICOT Anne       F    
##  8 02          Aisne      0206     Villeneuve-sur-Aisne MOUGEN… Paul       M    
##  9 03          Allier     0303     Commentry            SAINT-… Anne       F    
## 10 03          Allier     0309     Montluçon-1          MALBET  Marc       M    
## # ℹ 273 more rows
## # ℹ 6 more variables: date_naissance <chr>, profession_code <dbl>,
## #   profession_nom <chr>, date_mandat <chr>, fonction <chr>,
## #   fonction_date <chr>
```
…
La fonction `select()`de `{dplyr}` permet de sélectionner les variables jugées utiles ou pertinentes.

Cela comporte deux intérêts principaux :
1. alléger votre jeu de données pour rendre les opérations plus rapides ;
2. simplifier la lecture de votre jeu de données.

La manière la plus simple d'utiliser `select()`consiste à lister les variables retenues par leur nom :

```r
rne4 %>% select(elu_nom, elu_prenom, sexe)
```

```
## # A tibble: 4,055 × 3
##    elu_nom           elu_prenom sexe 
##    <chr>             <chr>      <chr>
##  1 BRUNET            Joël       M    
##  2 PETIT             Aurélie    F    
##  3 FOURNIER          Clotilde   F    
##  4 MARTIN            Walter     M    
##  5 LARMANJAT         Guy        M    
##  6 OLLIET            Anne-Laure F    
##  7 BOREL             Aurélie    F    
##  8 HEDON             Jean-Yves  M    
##  9 BERTRAND-MARÉCHAL Hélène     F    
## 10 MORAND            Alexis     M    
## # ℹ 4,045 more rows
```
…
---

En pratique, voilà ce que ça donne :

```r
rne4 %>% mutate(date_naissance = as.Date(date_naissance, format = "%d/%m/%Y"),
                age = as.numeric(difftime(today(), date_naissance, units = "weeks"))/52.25) %>% 
  select(date_naissance, age)
```

```
## # A tibble: 4,055 × 2
##    date_naissance   age
##    <date>         <dbl>
##  1 1955-05-02      68.5
##  2 1982-08-29      41.2
##  3 1966-09-01      57.2
##  4 1966-05-07      57.5
##  5 1962-09-28      61.1
##  6 1969-03-15      54.7
##  7 1979-08-07      44.3
##  8 1962-12-22      60.9
##  9 1974-09-10      49.2
## 10 1987-08-04      36.3
## # ℹ 4,045 more rows
```
…
---

### group_by()

Seule, la fonction `group_by()` ne "produit" rien. Elle laisse tout juste apparaître les groupes constitués suivant la liste de variable fournie.

```r
rne4_c %>% group_by(sexe)
```

```
## # A tibble: 1,753 × 8
## # Groups:   sexe [2]
##    region_code region_nom elu_nom    elu_prenom sexe  date_naissance date_mandat
##    <chr>       <chr>      <chr>      <chr>      <chr> <date>         <chr>      
##  1 01          Guadeloupe ARMOUGOM   Betty Vér… F     1965-07-09     02/07/2021 
##  2 01          Guadeloupe BAILLET    Patricia   F     1970-06-17     02/07/2021 
##  3 01          Guadeloupe BARDAIL    Jean       M     1951-05-30     02/07/2021 
##  4 01          Guadeloupe BITUFWILA  Aurélie    F     1991-08-21     02/07/2021 
##  5 01          Guadeloupe BONDOT-GA… Gersiane   F     1963-02-09     02/07/2021 
##  6 01          Guadeloupe BOREL-LIN… Josette    F     1941-08-12     02/07/2021 
##  7 01          Guadeloupe BRUDEY     Hilaire    M     1960-03-27     02/07/2021 
##  8 01          Guadeloupe CHALUS     Ary        M     1961-12-06     02/07/2021 
##  9 01          Guadeloupe CHAMMOUGO… Sylvie     F     1972-07-23     02/07/2021 
## 10 01          Guadeloupe CHATEAUBON Eddy       M     1971-07-01     02/07/2021 
## # ℹ 1,743 more rows
## # ℹ 1 more variable: age <dbl>
```
…
---

### Multigrouping

Il est possible de passer plus d'un nom de variable à `group_by()`. `summarise()` procédera alors par un calcul sur chacun des groupes croisés, c'est-à-dire toutes les combinaisons possibles des valeurs de chaque variable.

Nous pouvons ainsi complexifier notre synthèse sur les âges moyens par sexe en y ajoutant le critère de la région :

```r
rne4_c %>% group_by(region_nom, sexe) %>%
  summarise(age_moyen = mean(age))
```

```
## # A tibble: 28 × 3
## # Groups:   region_nom [14]
##    region_nom              sexe  age_moyen
##    <chr>                   <chr>     <dbl>
##  1 Auvergne-Rhône-Alpes    F          53.0
##  2 Auvergne-Rhône-Alpes    M          53.6
##  3 Bourgogne-Franche-Comté F          54.3
##  4 Bourgogne-Franche-Comté M          57.4
##  5 Bretagne                F          52.5
##  6 Bretagne                M          53.0
##  7 Centre-Val De Loire     F          51.3
##  8 Centre-Val De Loire     M          54.0
##  9 Grand Est               F          51.7
## 10 Grand Est               M          55.2
## # ℹ 18 more rows
```

---

### count() 1/2

Il peut être tentant d'utiliser la synthèse groupée pour calculer le nombre d'élément par groupe avec la fonction `n()`. Si nous voulions calculer le nombre d'homme et de femme par région, nous pourrions procéder ainsi  :

```r
rne4 %>% group_by(region_nom, sexe) %>% summarise(n = n())
```

```
## # A tibble: 190 × 3
## # Groups:   region_nom [95]
##    region_nom              sexe      n
##    <chr>                   <chr> <int>
##  1 Ain                     F        24
##  2 Ain                     M        23
##  3 Aisne                   F        21
##  4 Aisne                   M        21
##  5 Allier                  F        19
##  6 Allier                  M        19
##  7 Alpes-De-Haute-Provence F        15
##  8 Alpes-De-Haute-Provence M        15
##  9 Alpes-Maritimes         F        27
## 10 Alpes-Maritimes         M        27
## # ℹ 180 more rows
```

---

### count() 2/2

Une façon beaucoup plus simple et directe de le faire consiste à appeler la fonction `count()` en spécifiant pour argument les variables par lesquelles on souhaite grouper :

```r
rne4 %>% count(region_nom, sexe)
```

```
## # A tibble: 190 × 3
##    region_nom              sexe      n
##    <chr>                   <chr> <int>
##  1 Ain                     F        24
##  2 Ain                     M        23
##  3 Aisne                   F        21
##  4 Aisne                   M        21
##  5 Allier                  F        19
##  6 Allier                  M        19
##  7 Alpes-De-Haute-Provence F        15
##  8 Alpes-De-Haute-Provence M        15
##  9 Alpes-Maritimes         F        27
## 10 Alpes-Maritimes         M        27
## # ℹ 180 more rows
```
…
